        s1      s2      s3      s4      s5      s6      s7      s8      s9      s10     s11     s12     s13     s14     s15
128m    15624   8892    6111    4513    3594    2905    2450    2139    1990    1870    1771    1679    1614    1569    1548
64m     17948   9477    6167    4443    3592    2900    2438    2133    1981    1864    1752    1661    1598    1549    1527
32m     16332   9347    6055    4483    3476    2842    2402    2091    1943    1839    1736    1645    1575    1543    1513
16m     17803   9460    6129    4557    3601    2937    2463    2467    2351    2257    2229    2184    2229    2281    2497
8m      24736   15018   10363   7815    6198    5085    4236    3593    3600    3445    3541    3525    3839    4080    4473
4m      32104   21772   15522   11996   9777    8302    7209    6379    6147    5965    5833    5710    5632    5554    5539
2m      33799   22778   16136   12441   10149   8623    7498    6625    6364    6164    6002    5864    5791    5718    5448
1024k   32633   22369   15564   12383   10109   8567    7456    6598    6316    6101    5920    5783    5704    5616    5596
512k    33197   22986   15991   12369   10073   8616    7441    6595    6306    6091    5896    5788    5740    5725    5790
256k    34084   25152   19582   15790   12971   10984   9468    8385    8251    8341    8616    8895    9208    10032   10362
128k    34499   29093   28113   24037   19643   16914   14786   13122   13007   12894   13225   12864   13089   12826   13081
64k     33922   28490   28427   24560   19850   16937   14762   13315   12783   12722   12698   12761   13095   13570   24408
32k     39084   38180   35746   35992   36071   35032   35574   33628   35093   33908   35382   33497   30921   29684   33961
16k     38365   37354   35437   36661   35544   33497   32228   32292   30860   31583   29211   27254   27608   24674   38383



LEVEL1_ICACHE_SIZE                 32768
LEVEL1_ICACHE_ASSOC                8
LEVEL1_ICACHE_LINESIZE             6i4
LEVEL1_DCACHE_SIZE                 32768
LEVEL1_DCACHE_ASSOC                8
LEVEL1_DCACHE_LINESIZE             64
LEVEL2_CACHE_SIZE                  262144
LEVEL2_CACHE_ASSOC                 8
LEVEL2_CACHE_LINESIZE              64
LEVEL3_CACHE_SIZE                  8388608
LEVEL3_CACHE_ASSOC                 16
LEVEL3_CACHE_LINESIZE              64
LEVEL4_CACHE_SIZE                  0
LEVEL4_CACHE_ASSOC                 0
LEVEL4_CACHE_LINESIZE              0
